…
The full dataset merging by bakers.csv, bakes.csv, and results.csv has
the dimension of 1136 obs x 11 variable, each observation including
bake, baker, and result is represented as a row and arranged by seires
and episodes.

``` r
star_baker_df = bakers_bakes_results_df |>
  filter(series >= 5 ) |>
  select(series, episode, baker, result)|>
  filter(result == c("WINNER","STAR BAKER")) |>
  arrange(series, episode)
star_baker_df
```

    ## # A tibble: 30 × 4
    ##    series episode baker   result    
    ##     <dbl>   <dbl> <chr>   <chr>     
    ##  1      5       1 Nancy   STAR BAKER
    ##  2      5       3 Luis    STAR BAKER
    ##  3      5       8 Richard STAR BAKER
    ##  4      6       1 Marie   STAR BAKER
    ##  5      6       3 Ian     STAR BAKER
    ##  6      6       5 Nadiya  STAR BAKER
    ##  7      6       7 Tamal   STAR BAKER
    ##  8      6       9 Nadiya  STAR BAKER
    ##  9      6      10 Nadiya  WINNER    
    ## 10      7       1 Jane    STAR BAKER
    ## # ℹ 20 more rows
…
